{
  "$schema": "https://docs.renovatebot.com/renovate-schema.json",
  "enabledManagers": [
    "pip_requirements"
  ],
  "pip_requirements": {
    "fileMatch": "constraints.txt"
  },
  "packageRules": [
    {
      "groupName": "pyasn1 packages",
      "matchPackageNames": [
        "/^pyasn1/"
      ]
    },
    {
      "groupName": "AWS SDK modules",
      "matchPackageNames": [
        "/^boto/",
        "s3transfer"
      ]
    },
    {
      "matchPackageNames": [
        "lxml"
      ],
      "matchCurrentVersion": "<5",
      "allowedVersions": "<5",
      "groupName": "lxml (compat)"
    }
  ],
  "postUpgradeTasks": {
    "commands": [
      "/code/update_pipeline_constraints.sh"
    ]
  },
  "prBodyNotes": [
    "All Renovate MRs are tracked by #227."
  ]
}
